<svg version="1.1" xmlns="http://www.w3.org/2000/svg" xmlns:xlink="http://www.w3.org/1999/xlink" x="0px" y="0px"
	 viewBox="0 0 841.9 595.3" style="enable-background:new 0 0 841.9 595.3;" xml:space="preserve">
<style type="text/css">
	.st0{fill:#402C22;}
	.st1{fill:#FFCC40;}
	.st2{fill:#F58229;}
	.st3{fill:#EE3524;}
	.st4{fill:none;stroke:#58595B;stroke-width:2.835;}
	.st5{fill:#58595B;}
</style>
<path class="st0" d="M157.5,265.5c0.1,0.1,0.2,0.3,0.2,0.5v2.8c0,0.2-0.1,0.4-0.2,0.5c-0.1,0.1-0.3,0.2-0.5,0.2h-4.7v13.7
	c0,0.2-0.1,0.4-0.2,0.5c-0.1,0.1-0.3,0.2-0.5,0.2H148c-0.2,0-0.4-0.1-0.5-0.2s-0.2-0.3-0.2-0.5v-13.7h-4.7c-0.2,0-0.4-0.1-0.5-0.2
	c-0.1-0.1-0.2-0.3-0.2-0.5V266c0-0.2,0.1-0.4,0.2-0.5c0.1-0.1,0.3-0.2,0.5-0.2H157C157.2,265.3,157.3,265.4,157.5,265.5"/>
<path class="st0" d="M177.1,265.5c0.1,0.1,0.2,0.3,0.2,0.5v17.3c0,0.2-0.1,0.4-0.2,0.5c-0.1,0.1-0.3,0.2-0.5,0.2h-3.5
	c-0.2,0-0.4-0.1-0.5-0.2c-0.1-0.1-0.2-0.3-0.2-0.5v-6.6h-5.9v6.6c0,0.2-0.1,0.4-0.2,0.5c-0.1,0.1-0.3,0.2-0.5,0.2h-3.5
	c-0.2,0-0.4-0.1-0.5-0.2c-0.1-0.1-0.2-0.3-0.2-0.5V266c0-0.2,0.1-0.4,0.2-0.5c0.1-0.1,0.3-0.2,0.5-0.2h3.5c0.2,0,0.4,0.1,0.5,0.2
	c0.1,0.1,0.2,0.3,0.2,0.5v6.5h5.9V266c0-0.2,0.1-0.4,0.2-0.5c0.1-0.1,0.3-0.2,0.5-0.2h3.5C176.8,265.3,176.9,265.4,177.1,265.5"/>
<path class="st0" d="M187.3,279.8h8.5c0.2,0,0.4,0.1,0.5,0.2c0.1,0.1,0.2,0.3,0.2,0.5v2.8c0,0.2-0.1,0.4-0.2,0.5
	c-0.1,0.1-0.3,0.2-0.5,0.2h-12.7c-0.2,0-0.4-0.1-0.5-0.2c-0.1-0.1-0.2-0.3-0.2-0.5V266c0-0.2,0.1-0.4,0.2-0.5
	c0.1-0.1,0.3-0.2,0.5-0.2h12.5c0.2,0,0.4,0.1,0.5,0.2s0.2,0.3,0.2,0.5v2.8c0,0.2-0.1,0.4-0.2,0.5c-0.1,0.1-0.3,0.2-0.5,0.2h-8.2v2.9
	h7.7c0.2,0,0.4,0.1,0.5,0.2c0.1,0.1,0.2,0.3,0.2,0.5v2.8c0,0.2-0.1,0.4-0.2,0.5c-0.1,0.1-0.3,0.2-0.5,0.2h-7.7V279.8z"/>
<path class="st0" d="M120.8,288.2c9.2-15.6-1.3-23-10.1-8.3c-5.7,9.5,0.8,22,6,31.8c5.9,11.1,11.9,25,10.3,35.7
	c-1.6,12.4-14.1,17.5-25.8,16.3c-20.6-2.3-24.7-18.9-19.3-32.4c2.5-6.2,6.3-4.3,5.1-0.3c-3.3,10.6-3.6,27.3,13.9,28.8
	c7,0.6,13.6-2.9,13-12.7c-0.6-9.6-6-22.3-10.1-30.7c-5.9-11.7-12.5-27.1-6.3-38.5c9.3-16.9,41.8-20.3,27.4,11.2
	C123.5,291.3,119.7,290.3,120.8,288.2"/>
<path class="st0" d="M173.4,309.5c1.6-1.6,3.1,0.6,2.3,1.8c-2.9,5.4-12.2,22.3-18.9,21.8c-4.8-0.2-7.2-4.2-8.1-9.1
	c-3.6,6.5-8.2,10.9-12.4,10.7c-10.3-0.2-8.7-28.4-5.5-35.6c2.2-5.3,9.6-3,8.8,2.4c-0.1,4.6-3.6,22.1,0.2,24.3
	c2.4,1.3,6.1-2.9,8.5-8.1c0.4-3.6,1-13.1,2.8-17c2.6-5.3,9.1-2.5,8.4,2.9c-0.5,4.6-2.6,18,0.7,20.6
	C163.3,326.3,170.1,313.8,173.4,309.5"/>
<path class="st0" d="M189.4,304c-2.9,2.8-4.6,3.8-5.4,7.6c-1,4.5-0.5,9.9-0.5,14.4c0,5.1-10.3,2.5-10.5-4.4c-0.1-7.7,0-15.5,0-23.3
	c-0.1-5.9,8.5-4.8,9.3-0.6c0.4,2.3,0.4,4.6,0.6,7c3.4-5.3,9.4-10.7,13.5-10.6c10.1,0.4-1.6,26.6,4.2,30.2
	c3.1,1.9,6.9-10.3,10.1-14.7c1.6-1.6,3.1,0.6,2.4,1.8c-3,5.4-9.3,22.3-16.1,21.8c-9.3-0.6-8.8-19-6.4-29.2L189.4,304z"/>
<path class="st0" d="M230.4,277.6c0.5-3.1-0.8-5.5-2.4-4.8c-2.8,1.6-4.9,19-6.7,23.2C224,291.9,229.6,283.8,230.4,277.6 M221,302.4
	c-0.7,4.3-4.8,20.4-1,22.9c3.1,1.9,10.1-10.8,13.8-15.8c1.7-1.6,3.1,0.6,2.4,1.8c-3.4,5.4-11.9,23.1-19.8,22.9
	c-15.4-0.5-3.1-56.9,4.5-65.7c6.1-7,14.1,0.1,12.5,9.5C232.1,286.6,223.9,297.5,221,302.4"/>
<path class="st0" d="M241.5,282.6c8.4,0.4,6.6,10.6-0.8,10.2C234.5,292.4,234.5,282.2,241.5,282.6 M244.6,324.2
	c3.1,1.9,11.1-11.3,14.3-15.7c1.7-1.6,3.2,0.6,2.4,1.8c-3,5.4-13.5,23.3-20.3,22.8c-11.1-0.6-8.1-27.2-4.7-34.2
	c3.5-7.6,9.6-1.4,8.4,5.2C244.1,307.5,241.3,322.1,244.6,324.2"/>
<path class="st0" d="M270.7,356.7c0.6,1.2,1.1,1.9,2.4,1.1c2.8-1.7,3.5-20.4,4.9-24.7C273.8,338,267.6,350.3,270.7,356.7
	 M275.2,296.5c-6.7,1.3-10.8,27.1-6.4,28.7c3,1.2,7.1-9.3,7.9-11.3c1.4-3.6,2.5-10.2,2.8-13.5C278.4,298.4,276.2,296.3,275.2,296.5
	 M279.3,317.3c-2.2,4.9-5.3,12.9-10.8,12.6c-17.7-0.6-11.7-37.6,5.3-37.6c1.8,0,4.5,2,6.3,3.6v-2c-0.2-3.6,7-5.7,8.4,0.2
	c1.2,5.1,1.1,11.8,0.2,24.9c3-3.8,5.5-7.8,6.6-9.5c1-1.3,3.4-0.1,2.4,1.8c-2.9,5.7-6.1,10.6-9.5,14.3c-1.3,15.6-4,30.9-7.6,36
	c-4.4,6-9.9,3.4-12.5-2c-5.4-10.9,4.1-24.8,10.6-33.7L279.3,317.3z"/>
<path class="st0" d="M316.4,277.9c0.5-3-1.4-7.2-3.5-3.5c-2.4,4.5-5.5,18.6-6,22.1C309.7,292.5,315.3,284.1,316.4,277.9
	 M304.2,308.8c2.4-2.4,9.3-9.9,13.7-5.9c4.8,4.2-3,25.6,2.5,20.8c3.1-2.6,9.5-12.5,10.7-14.2c1.8-1.8,3,1.1,2.4,1.8
	c-3,5.9-12.4,24.5-20.6,21.8c-5.5-1.9-1.8-16.8-2.3-22.3c-0.5-6.5-5.4,1.8-7,4.2c-0.5,4.8-1,16.1-1.1,18.9c-0.1,3.7-8.2,4.9-9-1
	c-1.6-11.1,4.5-52.8,13.1-63.8c6.3-8.2,14.2,0.1,12.6,9.1C317.3,290.3,305.1,300.4,304.2,308.8"/>
<path class="st0" d="M329.1,288.9c1.9-0.1,4-0.2,5.9-0.5l0.4-2.3c1.9-11.7,10.5-9.7,10.2-2.8l-0.4,4c1.8-0.1,3.6,0,5.4,0.2
	c1.7,0.2,3,3.6-0.2,3.6c-2.2-0.1-4.1,0-5.8,0.1c-2.3,14.9-7.9,38.4-3,40.7c3.4,1.4,14.1-18.2,17.2-22.5c1.1-1.3,3.2,0,2.3,1.8
	c-3.6,6.1-14.7,30.4-24.9,29.1c-11.9-1.6-5.3-32.5-2-47.9c-1.9,0.1-4,0.2-6.3,0.1C325.3,292.4,325.4,289.1,329.1,288.9"/>
<path class="st0" d="M146.8,359c0.5,0.6,1.4,0.9,2.5,0.9c1.1,0,1.8-0.2,2.3-0.6c0.5-0.4,0.8-0.9,1-1.5c0.1-0.3,0.2-0.5,0.3-0.6
	c0.1-0.1,0.3-0.2,0.6-0.2h3.5c0.2,0,0.3,0.1,0.4,0.2c0.1,0.1,0.2,0.3,0.2,0.4c0,1.2-0.4,2.3-1.1,3.3c-0.7,1-1.7,1.8-3,2.4
	c-1.3,0.6-2.7,0.9-4.2,0.9c-1.7,0-3.1-0.3-4.3-1c-1.2-0.7-2.2-1.5-2.9-2.6c-0.7-1.1-1.1-2.3-1.1-3.7c0-0.9-0.1-1.6-0.1-2.1
	c0-0.7,0-1.5,0.1-2.6c0.1-1.3,0.4-2.6,1.1-3.7c0.7-1.1,1.6-2,2.9-2.6c1.2-0.7,2.7-1,4.3-1c1.5,0,2.9,0.3,4.2,0.9
	c1.3,0.6,2.3,1.4,3,2.4c0.7,1,1.1,2.1,1.1,3.3c0,0.2-0.1,0.3-0.2,0.4c-0.1,0.1-0.3,0.2-0.4,0.2h-3.5c-0.3,0-0.5-0.1-0.6-0.2
	c-0.1-0.1-0.2-0.3-0.3-0.6c-0.2-0.6-0.5-1.1-1-1.5c-0.5-0.4-1.3-0.6-2.3-0.6c-1.1,0-1.9,0.3-2.5,0.9c-0.5,0.6-0.8,1.3-0.9,2.2
	c0,0.6-0.1,1.4-0.1,2.2c0,0.9,0,1.6,0.1,2.2C146,357.7,146.3,358.4,146.8,359"/>
<path class="st0" d="M166.7,359.6h8.5c0.2,0,0.4,0.1,0.5,0.2c0.1,0.1,0.2,0.3,0.2,0.5v2.8c0,0.2-0.1,0.4-0.2,0.5
	c-0.1,0.1-0.3,0.2-0.5,0.2h-12.7c-0.2,0-0.4-0.1-0.5-0.2c-0.1-0.1-0.2-0.3-0.2-0.5v-17.3c0-0.2,0.1-0.4,0.2-0.5
	c0.1-0.1,0.3-0.2,0.5-0.2H175c0.2,0,0.4,0.1,0.5,0.2c0.1,0.1,0.2,0.3,0.2,0.5v2.8c0,0.2-0.1,0.4-0.2,0.5c-0.1,0.1-0.3,0.2-0.5,0.2
	h-8.2v2.9h7.7c0.2,0,0.4,0.1,0.5,0.2c0.1,0.1,0.2,0.3,0.2,0.5v2.8c0,0.2-0.1,0.4-0.2,0.5c-0.1,0.1-0.3,0.2-0.5,0.2h-7.7V359.6z"/>
<path class="st0" d="M191.8,363.7c-0.2-0.1-0.3-0.3-0.4-0.4l-6.1-9.2v9c0,0.2-0.1,0.4-0.2,0.5c-0.1,0.1-0.3,0.2-0.5,0.2H181
	c-0.2,0-0.4-0.1-0.5-0.2c-0.1-0.1-0.2-0.3-0.2-0.5v-17.3c0-0.2,0.1-0.4,0.2-0.5c0.1-0.1,0.3-0.2,0.5-0.2h2.8c0.3,0,0.5,0.1,0.7,0.2
	c0.2,0.1,0.3,0.3,0.4,0.4l6.1,9.2v-9c0-0.2,0.1-0.4,0.2-0.5c0.1-0.1,0.3-0.2,0.5-0.2h3.5c0.2,0,0.4,0.1,0.5,0.2s0.2,0.3,0.2,0.5
	v17.3c0,0.2-0.1,0.4-0.2,0.5s-0.3,0.2-0.5,0.2h-2.8C192.2,363.9,192,363.8,191.8,363.7"/>
<path class="st0" d="M215.3,345.3c0.1,0.1,0.2,0.3,0.2,0.5v2.8c0,0.2-0.1,0.4-0.2,0.5c-0.1,0.1-0.3,0.2-0.5,0.2h-4.7v13.7
	c0,0.2-0.1,0.4-0.2,0.5c-0.1,0.1-0.3,0.2-0.5,0.2h-3.5c-0.2,0-0.4-0.1-0.5-0.2c-0.1-0.1-0.2-0.3-0.2-0.5v-13.7h-4.7
	c-0.2,0-0.4-0.1-0.5-0.2c-0.1-0.1-0.2-0.3-0.2-0.5v-2.8c0-0.2,0.1-0.4,0.2-0.5c0.1-0.1,0.3-0.2,0.5-0.2h14.4
	C215,345.1,215.2,345.2,215.3,345.3"/>
<path class="st0" d="M227.3,353.2c1.7,0,2.6-0.7,2.6-2c0-1.3-0.9-2-2.6-2h-3v4H227.3z M232.8,346.7c1.3,1,2,2.6,2,4.6
	c0,2.6-1.1,4.4-3.2,5.4l3.3,6.4c0.1,0.1,0.1,0.2,0.1,0.3c0,0.2-0.1,0.3-0.2,0.4c-0.1,0.1-0.3,0.2-0.4,0.2h-3.6
	c-0.3,0-0.6-0.1-0.7-0.2c-0.2-0.1-0.3-0.3-0.4-0.5l-3-5.7h-2.5v5.7c0,0.2-0.1,0.4-0.2,0.5c-0.1,0.1-0.3,0.2-0.5,0.2H220
	c-0.2,0-0.4-0.1-0.5-0.2c-0.1-0.1-0.2-0.3-0.2-0.5v-17.3c0-0.2,0.1-0.4,0.2-0.5c0.1-0.1,0.3-0.2,0.5-0.2h7.3
	C229.7,345.1,231.5,345.6,232.8,346.7"/>
<path class="st0" d="M244.2,359.6h8.5c0.2,0,0.4,0.1,0.5,0.2c0.1,0.1,0.2,0.3,0.2,0.5v2.8c0,0.2-0.1,0.4-0.2,0.5
	c-0.1,0.1-0.3,0.2-0.5,0.2H240c-0.2,0-0.4-0.1-0.5-0.2s-0.2-0.3-0.2-0.5v-17.3c0-0.2,0.1-0.4,0.2-0.5c0.1-0.1,0.3-0.2,0.5-0.2h12.5
	c0.2,0,0.4,0.1,0.5,0.2c0.1,0.1,0.2,0.3,0.2,0.5v2.8c0,0.2-0.1,0.4-0.2,0.5c-0.1,0.1-0.3,0.2-0.5,0.2h-8.2v2.9h7.7
	c0.2,0,0.4,0.1,0.5,0.2c0.1,0.1,0.2,0.3,0.2,0.5v2.8c0,0.2-0.1,0.4-0.2,0.5c-0.1,0.1-0.3,0.2-0.5,0.2h-7.7V359.6z"/>
<path class="st1" d="M366.5,290.3c1.5,0.8,4.1,0.6,4.9-0.9c8.4-16.2,2-36.3-14.3-44.6c-15.2-7.8-33.6-3-42.9,11.3
	c-0.9,1.4-0.9,2.3,0.3,3c1.1,0.7,1.9-0.2,2.9-1.5c8.8-12.4,24.4-13.2,36.8-6.8c13.3,6.8,14.9,20.5,10.2,35.1
	C363.9,287.5,365,289.5,366.5,290.3"/>
<path class="st2" d="M361.1,239c-2.3-1.2-3.2-4.2-2-6.5c1.2-2.3,4.2-3.2,6.5-2c2.3,1.2,3.2,4.2,2,6.5
	C366.3,239.3,363.4,240.2,361.1,239"/>
<path class="st3" d="M369.9,222.4c-2.3-1.2-3.2-4.2-2-6.5c1.2-2.3,4.2-3.2,6.5-2c2.3,1.2,3.2,4.2,2,6.5
	C375.2,222.7,372.3,223.6,369.9,222.4"/>
<path class="st2" d="M382.1,265.2c-0.5-2.6,1.2-5.1,3.8-5.7c2.6-0.5,5.1,1.2,5.7,3.8c0.5,2.6-1.2,5.1-3.8,5.7
	C385.1,269.5,382.6,267.8,382.1,265.2"/>
<path class="st3" d="M400.5,261.5c-0.5-2.6,1.2-5.1,3.8-5.7c2.6-0.5,5.1,1.2,5.7,3.8c0.5,2.6-1.2,5.1-3.8,5.7
	C403.6,265.8,401,264.1,400.5,261.5"/>
<path class="st1" d="M383.2,283c0.6-2.6,3.1-4.3,5.7-3.7c2.6,0.6,4.3,3.1,3.7,5.7c-0.6,2.6-3.1,4.3-5.7,3.7
	C384.3,288.2,382.7,285.6,383.2,283"/>
<path class="st2" d="M401.6,287c0.6-2.6,3.1-4.3,5.7-3.7c2.6,0.6,4.3,3.1,3.7,5.7c-0.6,2.6-3.1,4.3-5.7,3.7
	C402.7,292.2,401,289.6,401.6,287"/>
<path class="st2" d="M327.1,236.1c2.4-1.1,3.5-3.9,2.5-6.3s-3.9-3.5-6.3-2.5c-2.4,1.1-3.5,3.9-2.5,6.3
	C321.8,236.1,324.7,237.2,327.1,236.1"/>
<path class="st3" d="M319.5,218.9c2.4-1.1,3.5-3.9,2.5-6.3c-1.1-2.4-3.9-3.5-6.3-2.5s-3.5,3.9-2.5,6.3
	C314.2,218.9,317.1,220,319.5,218.9"/>
<path class="st1" d="M373.6,248.7c-1.7-2.1-1.3-5.1,0.7-6.8c2.1-1.7,5.1-1.3,6.8,0.7c1.7,2.1,1.3,5.1-0.7,6.8
	C378.3,251.1,375.2,250.8,373.6,248.7"/>
<path class="st2" d="M388.2,236.9c-1.7-2.1-1.3-5.1,0.7-6.8c2.1-1.7,5.1-1.3,6.8,0.7c1.7,2.1,1.3,5.1-0.7,6.8
	C392.9,239.3,389.9,239,388.2,236.9"/>
<path class="st1" d="M345.3,234.2c2.7,0.1,4.9-1.9,5-4.6c0.1-2.7-1.9-4.9-4.6-5c-2.7-0.1-4.9,1.9-5,4.6
	C340.6,231.8,342.6,234.1,345.3,234.2"/>
<path class="st2" d="M346.2,215.4c2.7,0.1,4.9-1.9,5-4.6c0.1-2.7-1.9-4.9-4.6-5c-2.7-0.1-4.9,1.9-5,4.6
	C341.5,213,343.5,215.3,346.2,215.4"/>
<path class="st1" d="M312.5,245.7c1.8-1.9,1.8-5-0.1-6.8c-1.9-1.8-5-1.8-6.8,0.1c-1.8,1.9-1.8,5,0.1,6.8
	C307.6,247.7,310.7,247.7,312.5,245.7"/>
<path class="st2" d="M298.9,232.7c1.8-1.9,1.8-5-0.1-6.8c-1.9-1.8-5-1.8-6.8,0.1c-1.8,1.9-1.8,5,0.1,6.8
	C294.1,234.7,297.1,234.6,298.9,232.7"/>
<line class="st4" x1="443.5" y1="263.2" x2="443.5" y2="365.8"/>
<path class="st5" d="M476.2,300.7c0-5.4,2.9-8.7,7.5-8.7c3.7,0,6.5,2.4,6.9,5.8H488c-0.5-2-2.2-3.4-4.3-3.4c-3,0-4.8,2.4-4.8,6.3
	c0,3.9,1.9,6.3,4.9,6.3c2.2,0,3.9-1.2,4.3-3.1h2.6c-0.5,3.3-3.2,5.5-6.9,5.5C479.1,309.4,476.2,306.1,476.2,300.7"/>
<path class="st5" d="M493.7,296.5h2.4v1.9h0.2c0.4-1.2,1.7-2.1,3.4-2.1c0.4,0,0.8,0,1.1,0.1v2.4c-0.2-0.1-1-0.1-1.4-0.1
	c-1.9,0-3.2,1.2-3.2,2.9v7.4h-2.5V296.5z"/>
<path class="st5" d="M503.2,296.5h2.5V309h-2.5V296.5z M502.8,292.8c0-0.9,0.7-1.5,1.6-1.5c0.9,0,1.6,0.7,1.6,1.5
	c0,0.9-0.7,1.5-1.6,1.5C503.5,294.3,502.8,293.6,502.8,292.8"/>
<path class="st5" d="M513.9,296.2c2.8,0,4.7,1.3,4.9,3.5h-2.4c-0.2-0.9-1.1-1.5-2.5-1.5c-1.4,0-2.4,0.7-2.4,1.6c0,0.7,0.6,1.2,2,1.5
	l2.1,0.5c2.4,0.6,3.5,1.6,3.5,3.4c0,2.4-2.2,3.9-5.2,3.9c-3,0-4.9-1.3-5.1-3.6h2.5c0.3,1,1.2,1.6,2.7,1.6c1.5,0,2.6-0.7,2.6-1.7
	c0-0.7-0.6-1.2-1.8-1.5l-2.2-0.5c-2.4-0.6-3.5-1.6-3.5-3.5C509,297.8,511.1,296.2,513.9,296.2"/>
<path class="st5" d="M522.1,296.5h2.5V309h-2.5V296.5z M521.7,292.8c0-0.9,0.7-1.5,1.6-1.5c0.9,0,1.6,0.7,1.6,1.5
	c0,0.9-0.7,1.5-1.6,1.5C522.4,294.3,521.7,293.6,521.7,292.8"/>
<path class="st5" d="M532.7,296.2c2.8,0,4.7,1.3,4.9,3.5h-2.4c-0.2-0.9-1.1-1.5-2.5-1.5c-1.4,0-2.4,0.7-2.4,1.6c0,0.7,0.6,1.2,2,1.5
	l2.1,0.5c2.4,0.6,3.5,1.6,3.5,3.4c0,2.4-2.2,3.9-5.2,3.9c-3,0-4.9-1.3-5.1-3.6h2.5c0.3,1,1.2,1.6,2.7,1.6c1.5,0,2.6-0.7,2.6-1.7
	c0-0.7-0.6-1.2-1.8-1.5l-2.2-0.5c-2.4-0.6-3.5-1.6-3.5-3.5C527.9,297.8,529.9,296.2,532.7,296.2"/>
<path class="st5" d="M546.9,300.7c0-5.4,2.9-8.7,7.5-8.7c3.7,0,6.5,2.4,6.9,5.8h-2.6c-0.5-2-2.2-3.4-4.3-3.4c-3,0-4.8,2.4-4.8,6.3
	c0,3.9,1.9,6.3,4.9,6.3c2.2,0,3.9-1.2,4.3-3.1h2.6c-0.5,3.3-3.2,5.5-6.9,5.5C549.8,309.4,546.9,306.1,546.9,300.7"/>
<path class="st5" d="M573.1,302.7c0-2.7-1.2-4.3-3.4-4.3c-2.2,0-3.4,1.6-3.4,4.3c0,2.7,1.2,4.3,3.4,4.3
	C571.9,307,573.1,305.5,573.1,302.7 M563.8,302.7c0-4,2.3-6.5,5.9-6.5c3.6,0,5.9,2.5,5.9,6.5c0,4.1-2.2,6.5-5.9,6.5
	C566,309.2,563.8,306.8,563.8,302.7"/>
<path class="st5" d="M589.4,309H587v-2h-0.2c-0.6,1.4-2,2.2-3.9,2.2c-2.8,0-4.4-1.7-4.4-4.7v-8.1h2.5v7.5c0,2,0.9,3,2.8,3
	c2,0,3.2-1.2,3.2-3.2v-7.3h2.5V309z"/>
<path class="st5" d="M593,296.5h2.4v2h0.2c0.6-1.4,2.1-2.2,4-2.2c2.8,0,4.4,1.7,4.4,4.7v8.1h-2.5v-7.5c0-2-0.9-3-2.7-3
	c-2,0-3.2,1.2-3.2,3.2v7.3H593V296.5z"/>
<path class="st5" d="M612,296.2c2.8,0,4.7,1.3,4.9,3.5h-2.4c-0.2-0.9-1.1-1.5-2.5-1.5c-1.4,0-2.4,0.7-2.4,1.6c0,0.7,0.6,1.2,2,1.5
	l2.1,0.5c2.4,0.6,3.5,1.6,3.5,3.4c0,2.4-2.2,3.9-5.2,3.9c-3,0-4.9-1.3-5.1-3.6h2.5c0.3,1,1.2,1.6,2.7,1.6c1.5,0,2.6-0.7,2.6-1.7
	c0-0.7-0.6-1.2-1.8-1.5l-2.2-0.5c-2.4-0.6-3.5-1.6-3.5-3.5C607.1,297.8,609.1,296.2,612,296.2"/>
<path class="st5" d="M622,301.6h6.3c-0.1-2-1.3-3.2-3.1-3.2C623.4,298.3,622.1,299.6,622,301.6 M630.7,305.6
	c-0.6,2.2-2.6,3.6-5.4,3.6c-3.6,0-5.8-2.5-5.8-6.5c0-4,2.2-6.6,5.8-6.6c3.5,0,5.6,2.4,5.6,6.3v0.9H622v0.1c0.1,2.2,1.4,3.6,3.3,3.6
	c1.5,0,2.5-0.5,3-1.5H630.7z"/>
<rect x="633.9" y="291.6" class="st5" width="2.5" height="17.4"/>
<rect x="640.2" y="291.6" class="st5" width="2.5" height="17.4"/>
<path class="st5" d="M646.5,296.5h2.5V309h-2.5V296.5z M646.1,292.8c0-0.9,0.7-1.5,1.6-1.5s1.6,0.7,1.6,1.5c0,0.9-0.7,1.5-1.6,1.5
	S646.1,293.6,646.1,292.8"/>
<path class="st5" d="M652.6,296.5h2.4v2h0.2c0.6-1.4,2.1-2.2,4-2.2c2.8,0,4.4,1.7,4.4,4.7v8.1H661v-7.5c0-2-0.9-3-2.7-3
	c-2,0-3.2,1.2-3.2,3.2v7.3h-2.5V296.5z"/>
<path class="st5" d="M672.2,298.5c-2.1,0-3.3,1.6-3.3,4.1c0,2.5,1.2,4.1,3.3,4.1c2.1,0,3.4-1.6,3.4-4.1
	C675.6,300.1,674.3,298.5,672.2,298.5 M666.8,310.3h2.5c0.2,0.9,1.3,1.5,2.9,1.5c2.1,0,3.3-1,3.3-2.6v-2.4h-0.2
	c-0.8,1.4-2.1,2.1-3.9,2.1c-3.2,0-5.2-2.5-5.2-6.2c0-3.8,2-6.3,5.2-6.3c1.7,0,3.2,0.9,3.9,2.2h0.2v-2h2.4v12.6
	c0,2.9-2.2,4.7-5.8,4.7C669.1,313.8,667.1,312.4,666.8,310.3"/>
<path class="st5" d="M477.5,325.3h-2.1v-2.1h2.1v-1.2c0-2.6,1.3-3.6,3.9-3.6c0.5,0,0.9,0,1.4,0.1v2c-0.3,0-0.7-0.1-1.1-0.1
	c-1.1,0-1.8,0.5-1.8,1.7v1.1h2.8v2.1h-2.8v10.4h-2.5V325.3z"/>
<path class="st5" d="M493.7,329.4c0-2.7-1.2-4.3-3.4-4.3c-2.2,0-3.4,1.6-3.4,4.3c0,2.7,1.2,4.3,3.4,4.3
	C492.5,333.7,493.7,332.1,493.7,329.4 M484.4,329.4c0-4,2.3-6.5,5.9-6.5c3.6,0,5.9,2.5,5.9,6.5c0,4.1-2.2,6.5-5.9,6.5
	C486.6,335.9,484.4,333.4,484.4,329.4"/>
<path class="st5" d="M499.2,323.1h2.4v1.9h0.2c0.4-1.2,1.7-2.1,3.4-2.1c0.4,0,0.8,0,1.1,0.1v2.4c-0.2-0.1-1-0.1-1.4-0.1
	c-1.9,0-3.2,1.2-3.2,2.9v7.4h-2.5V323.1z"/>
<path class="st5" d="M517,331.2c0.2,1.6,1.8,2.6,4,2.6c2.1,0,3.6-1.1,3.6-2.5c0-1.3-1-2-3.2-2.5l-2.1-0.5c-3-0.7-4.4-2.2-4.4-4.6
	c0-3,2.4-4.9,6-4.9c3.4,0,5.8,2,6,4.8h-2.5c-0.2-1.5-1.6-2.5-3.5-2.5c-2,0-3.4,1-3.4,2.5c0,1.2,0.9,1.9,3,2.4l1.8,0.4
	c3.4,0.8,4.8,2.2,4.8,4.7c0,3.2-2.5,5.2-6.4,5.2c-3.7,0-6.2-1.9-6.3-4.9H517z"/>
<path class="st5" d="M541.1,335.7h-2.4v-2h-0.2c-0.6,1.4-2,2.2-3.9,2.2c-2.8,0-4.4-1.7-4.4-4.7v-8.1h2.5v7.5c0,2,0.9,3,2.8,3
	c2,0,3.2-1.2,3.2-3.2v-7.3h2.5V335.7z"/>
<path class="st5" d="M544.7,323.1h2.5v12.5h-2.5V323.1z M544.4,319.4c0-0.9,0.7-1.5,1.6-1.5s1.6,0.7,1.6,1.5c0,0.9-0.7,1.5-1.6,1.5
	S544.4,320.3,544.4,319.4"/>
<path class="st5" d="M559.1,327.2c-0.3-1.2-1.3-2.1-3-2.1c-2.1,0-3.3,1.6-3.3,4.3c0,2.7,1.3,4.3,3.3,4.3c1.6,0,2.6-0.7,3-2.1h2.4
	c-0.3,2.5-2.3,4.3-5.4,4.3c-3.7,0-5.9-2.5-5.9-6.6c0-4,2.2-6.5,5.9-6.5c3.1,0,5,1.8,5.4,4.3H559.1z"/>
<path class="st5" d="M564.3,323.1h2.5v12.5h-2.5V323.1z M564,319.4c0-0.9,0.7-1.5,1.6-1.5c0.9,0,1.6,0.7,1.6,1.5
	c0,0.9-0.7,1.5-1.6,1.5C564.6,320.9,564,320.3,564,319.4"/>
<path class="st5" d="M572.4,329.4c0,2.7,1.3,4.3,3.3,4.3c2.1,0,3.4-1.6,3.4-4.2c0-2.6-1.3-4.3-3.4-4.3
	C573.6,325.1,572.4,326.7,572.4,329.4 M569.8,329.4c0-4,2-6.5,5.2-6.5c1.7,0,3.2,0.8,3.8,2.2h0.2v-6.9h2.5v17.4h-2.4v-2H579
	c-0.7,1.4-2.2,2.2-3.9,2.2C571.8,335.9,569.8,333.4,569.8,329.4"/>
<path class="st5" d="M587.1,328.2h6.3c-0.1-2-1.3-3.2-3.1-3.2C588.5,325,587.3,326.3,587.1,328.2 M595.8,332.3
	c-0.6,2.2-2.6,3.6-5.4,3.6c-3.6,0-5.8-2.5-5.8-6.5c0-4,2.2-6.6,5.8-6.6c3.5,0,5.6,2.4,5.6,6.3v0.9h-8.9v0.1c0.1,2.2,1.4,3.6,3.3,3.6
	c1.5,0,2.5-0.5,3-1.5H595.8z"/>
<path class="st5" d="M612.7,331v-1l-3.1,0.2c-1.7,0.1-2.5,0.7-2.5,1.8c0,1.1,1,1.8,2.3,1.8C611.4,333.8,612.7,332.6,612.7,331
	 M604.7,332.1c0-2.3,1.7-3.6,4.7-3.7l3.4-0.2v-1.1c0-1.3-0.9-2.1-2.6-2.1c-1.4,0-2.3,0.5-2.6,1.4h-2.4c0.3-2.2,2.3-3.5,5.1-3.5
	c3.1,0,4.9,1.6,4.9,4.2v8.6h-2.4v-1.8h-0.2c-0.7,1.3-2.1,2-3.8,2C606.4,335.9,604.7,334.4,604.7,332.1"/>
<path class="st5" d="M618.7,323.1h2.4v2h0.2c0.6-1.4,2.1-2.2,4-2.2c2.8,0,4.4,1.7,4.4,4.7v8.1h-2.5v-7.5c0-2-0.9-3-2.7-3
	c-2,0-3.2,1.2-3.2,3.2v7.3h-2.5V323.1z"/>
<path class="st5" d="M635,329.4c0,2.7,1.3,4.3,3.3,4.3c2.1,0,3.4-1.6,3.4-4.2c0-2.6-1.3-4.3-3.4-4.3
	C636.3,325.1,635,326.7,635,329.4 M632.5,329.4c0-4,2-6.5,5.2-6.5c1.7,0,3.2,0.8,3.8,2.2h0.2v-6.9h2.5v17.4h-2.4v-2h-0.2
	c-0.7,1.4-2.2,2.2-3.9,2.2C634.5,335.9,632.5,333.4,632.5,329.4"/>
<path class="st5" d="M656.4,331.2c0.2,1.6,1.8,2.6,4,2.6c2.1,0,3.6-1.1,3.6-2.5c0-1.3-1-2-3.2-2.5l-2.1-0.5c-3-0.7-4.4-2.2-4.4-4.6
	c0-3,2.4-4.9,6-4.9c3.4,0,5.8,2,6,4.8h-2.5c-0.2-1.5-1.6-2.5-3.5-2.5c-2,0-3.4,1-3.4,2.5c0,1.2,0.9,1.9,3,2.4l1.8,0.4
	c3.4,0.8,4.8,2.2,4.8,4.7c0,3.2-2.5,5.2-6.4,5.2c-3.7,0-6.2-1.9-6.3-4.9H656.4z"/>
<path class="st5" d="M671.6,328.2h6.3c-0.1-2-1.3-3.2-3.1-3.2C673,325,671.7,326.3,671.6,328.2 M680.3,332.3
	c-0.6,2.2-2.6,3.6-5.4,3.6c-3.6,0-5.8-2.5-5.8-6.5c0-4,2.2-6.6,5.8-6.6c3.5,0,5.6,2.4,5.6,6.3v0.9h-8.9v0.1c0.1,2.2,1.4,3.6,3.3,3.6
	c1.5,0,2.5-0.5,3-1.5H680.3z"/>
<rect x="683.5" y="318.2" class="st5" width="2.5" height="17.4"/>
<path class="st5" d="M690.6,325.3h-2.1v-2.1h2.1v-1.2c0-2.6,1.3-3.6,3.9-3.6c0.5,0,0.9,0,1.4,0.1v2c-0.3,0-0.7-0.1-1.1-0.1
	c-1.1,0-1.8,0.5-1.8,1.7v1.1h2.8v2.1h-2.8v10.4h-2.5V325.3z"/>
<rect x="698.2" y="327.7" class="st5" width="7.6" height="2.4"/>
<polygon class="st5" points="720.8,335.7 720.8,328.4 712.3,328.4 712.3,335.7 709.7,335.7 709.7,319 712.3,319 712.3,326 
	720.8,326 720.8,319 723.4,319 723.4,335.7 "/>
<path class="st5" d="M734.6,331v-1l-3.1,0.2c-1.7,0.1-2.5,0.7-2.5,1.8c0,1.1,1,1.8,2.3,1.8C733.2,333.8,734.6,332.6,734.6,331
	 M726.5,332.1c0-2.3,1.7-3.6,4.7-3.7l3.4-0.2v-1.1c0-1.3-0.9-2.1-2.6-2.1c-1.4,0-2.3,0.5-2.6,1.4H727c0.3-2.2,2.3-3.5,5.1-3.5
	c3.1,0,4.9,1.6,4.9,4.2v8.6h-2.4v-1.8h-0.2c-0.7,1.3-2.1,2-3.8,2C728.3,335.9,726.5,334.4,726.5,332.1"/>
<path class="st5" d="M740.6,323.1h2.4v1.9h0.2c0.4-1.2,1.7-2.1,3.4-2.1c0.4,0,0.8,0,1.1,0.1v2.4c-0.2-0.1-1-0.1-1.4-0.1
	c-1.9,0-3.2,1.2-3.2,2.9v7.4h-2.5V323.1z"/>
<path class="st5" d="M750.1,323.1h2.4v2h0.2c0.6-1.4,1.8-2.3,3.5-2.3c1.7,0,2.9,0.9,3.5,2.3h0.2c0.6-1.4,2.1-2.3,3.8-2.3
	c2.5,0,4,1.5,4,4.1v8.6h-2.5v-8c0-1.7-0.8-2.5-2.4-2.5c-1.6,0-2.6,1.2-2.6,2.6v7.9h-2.4v-8.2c0-1.4-0.9-2.3-2.4-2.3
	c-1.5,0-2.6,1.2-2.6,2.8v7.7h-2.5V323.1z"/>
</svg>
